%YAML 1.1
%TAG !u! tag:unity3d.com,2011:
--- !u!1045 &1
EditorBuildSettings:
  m_ObjectHideFlags: 0
  serializedVersion: 2
  m_Scenes:
  - enabled: 1
    path: Assets/Scenes/SampleScene.unity
    guid: 2cda990e2423bbf4892e6590ba056729
  - enabled: 1
    path: Assets/Scenes/endgame.unity
    guid: 6f58d901c023a734098a097514da19b9
  - enabled: 1
    path: Assets/Scenes/endgame2.unity
    guid: 575ceb4d94f321a499ad3c3a5f396dc7
  m_configObjects: {}
